<?xml version="1.0" encoding="utf-8"?>
<!-- Generator: Adobe Illustrator 21.1.0, SVG Export Plug-In . SVG Version: 6.00 Build 0)  -->
<svg version="1.1" id="Layer_1" xmlns="http://www.w3.org/2000/svg" xmlns:xlink="http://www.w3.org/1999/xlink" x="0px" y="0px"
	 viewBox="0 0 50.7 45.8" style="enable-background:new 0 0 50.7 45.8;" xml:space="preserve">
<style type="text/css">
	.st0{opacity:0.2;fill:#FFFFFF;}
</style>
<path class="st0" d="M46.3,6.3c-0.1-0.2-0.3-0.4-0.5-0.4c-0.2,0-0.4,0.1-0.6,0.3c-0.8,1.1-1.8,1.4-2.9,1.8c-0.9,0.3-1.9,0.7-3,1.4
	c-1.5,1.1-2.2,2.5-1.8,3.9l0,0c-0.6-0.9-1.3-1.7-2-2.5c-3.3-3.5-8-5.6-12.8-5.7c-0.2,0-0.4,0-0.6,0c-5.3,0-10.5,2.4-14,6.6
	c-3.6,4.1-5.1,9.5-4.3,14.8c0.1,0.4,0.2,0.9,0.3,1.3c1.3,5.8,4.7,10.2,9.2,12.1c1.1,0.5,2.2,0.7,3.4,0.7c2.8,0,5.2-1.5,6.6-4
	c0.5-1,0.9-2,1-3c0.1-0.6,0-1.2,0-1.8c-0.1-0.6-0.1-1.2,0-1.7c0.2-1.3,1.1-2.1,2.4-2.1c0.4,0,0.8,0.1,1.1,0.2
	c-0.4,0.8-0.9,1.6-1.2,2.3c-0.8,1.5-1.3,2.8-1.5,3.8c-0.2,0.6-0.6,2.2,0.5,3c0.3,0.2,0.8,0.3,1.2,0.2c0.4-0.1,1.7-0.3,5.2-4.3
	c1-1.1,2-2.3,3-3.7c2.7-0.9,4.9-3.2,5.5-5.9c0.1-0.7,0.2-1.4,0.2-2.1c1-1.6,1.9-3.1,2.8-4.7c0,0,0-0.1,0.1-0.1
	c1.3-0.4,2.5-1.4,3.1-2.8C47.5,11.8,47.4,9.1,46.3,6.3L46.3,6.3z M31.4,16.2c-0.5,0.8-1.3,1.2-2.2,1.2c-0.5,0-1-0.1-1.4-0.4
	c-0.6-0.4-1-0.9-1.1-1.6c-0.2-0.7,0-1.4,0.3-2c0.5-0.8,1.3-1.2,2.2-1.2c0.5,0,1,0.1,1.4,0.4c0.6,0.4,1,0.9,1.1,1.6
	C31.9,14.9,31.8,15.6,31.4,16.2L31.4,16.2z M34.8,20.9c1.3-1.9,2.7-3.8,4-5.6c0.2,0.2,0.5,0.4,0.7,0.6c0.4,0.3,0.9,0.5,1.3,0.7
	c-1.1,1.9-2.3,3.8-3.7,5.9c-2.4,3.5-4.8,6.7-7,9.2c-1.2,1.3-2.2,2.4-3,3c0.3-1,0.9-2.3,1.7-3.9C30.3,27.9,32.4,24.4,34.8,20.9
	L34.8,20.9z M11.8,20.9c-0.5,0-1-0.1-1.4-0.4c-0.6-0.4-1-0.9-1.1-1.6c-0.2-0.7,0-1.4,0.3-2c0.5-0.8,1.3-1.2,2.2-1.2
	c0.5,0,1,0.1,1.4,0.4c1.2,0.8,1.6,2.4,0.8,3.6C13.5,20.4,12.7,20.9,11.8,20.9L11.8,20.9z M9.1,26.6c0.5-0.8,1.3-1.2,2.2-1.2
	c0.5,0,1,0.1,1.4,0.4c0.6,0.4,1,0.9,1.1,1.6c0.2,0.7,0,1.4-0.3,2c-0.5,0.8-1.3,1.2-2.2,1.2c-0.5,0-1-0.1-1.4-0.4
	c-0.6-0.4-1-0.9-1.1-1.6C8.6,27.9,8.7,27.2,9.1,26.6L9.1,26.6z M17.4,11.2c0.5-0.8,1.3-1.2,2.2-1.2c0.5,0,1,0.1,1.4,0.4
	c1.2,0.8,1.6,2.4,0.8,3.6c-0.5,0.8-1.3,1.2-2.2,1.2c-0.5,0-1-0.1-1.4-0.4c-0.6-0.4-1-0.9-1.1-1.6C16.9,12.5,17,11.8,17.4,11.2
	L17.4,11.2z M17.4,11.2"/>
</svg>
